{
  "page": 1,
  "per_page": 16,
  "photos": [
    {
      "id": 10824761,
      "width": 2296,
      "height": 3600,
      "url": "https://www.pexels.com/photo/silhouette-of-house-under-blue-sky-during-sunset-10824761/",
      "photographer": "Lisa Fotios",
      "photographer_url": "https://www.pexels.com/@fotios-photos",
      "photographer_id": 26735,
      "avg_color": "#A3A1AF",
      "src": {
        "original": "https://images.pexels.com/photos/10824761/pexels-photo-10824761.jpeg",
        "large2x": "https://images.pexels.com/photos/10824761/pexels-photo-10824761.jpeg?auto=compress&cs=tinysrgb&dpr=2&h=650&w=940",
        "large": "https://images.pexels.com/photos/10824761/pexels-photo-10824761.jpeg?auto=compress&cs=tinysrgb&h=650&w=940",
        "medium": "https://images.pexels.com/photos/10824761/pexels-photo-10824761.jpeg?auto=compress&cs=tinysrgb&h=350",
        "small": "https://images.pexels.com/photos/10824761/pexels-photo-10824761.jpeg?auto=compress&cs=tinysrgb&h=130",
        "portrait": "https://images.pexels.com/photos/10824761/pexels-photo-10824761.jpeg?auto=compress&cs=tinysrgb&fit=crop&h=1200&w=800",
        "landscape": "https://images.pexels.com/photos/10824761/pexels-photo-10824761.jpeg?auto=compress&cs=tinysrgb&fit=crop&h=627&w=1200",
        "tiny": "https://images.pexels.com/photos/10824761/pexels-photo-10824761.jpeg?auto=compress&cs=tinysrgb&dpr=1&fit=crop&h=200&w=280"
      },
      "alt": "Silhouette of House Under Blue Sky during Sunset"
    },
    {
      "id": 7051053,
      "width": 2667,
      "height": 4000,
      "url": "https://www.pexels.com/photo/green-trees-on-mountain-7051053/",
      "photographer": "Enzo Varsi",
      "photographer_url": "https://www.pexels.com/@enzovarsi",
      "photographer_id": 33523289,
      "avg_color": "#9FA19B",
      "src": {
        "original": "https://images.pexels.com/photos/7051053/pexels-photo-7051053.png",
        "large2x": "https://images.pexels.com/photos/7051053/pexels-photo-7051053.png?auto=compress&cs=tinysrgb&dpr=2&h=650&w=940",
        "large": "https://images.pexels.com/photos/7051053/pexels-photo-7051053.png?auto=compress&cs=tinysrgb&h=650&w=940",
        "medium": "https://images.pexels.com/photos/7051053/pexels-photo-7051053.png?auto=compress&cs=tinysrgb&h=350",
        "small": "https://images.pexels.com/photos/7051053/pexels-photo-7051053.png?auto=compress&cs=tinysrgb&h=130",
        "portrait": "https://images.pexels.com/photos/7051053/pexels-photo-7051053.png?auto=compress&cs=tinysrgb&fit=crop&h=1200&w=800",
        "landscape": "https://images.pexels.com/photos/7051053/pexels-photo-7051053.png?auto=compress&cs=tinysrgb&fit=crop&h=627&w=1200",
        "tiny": "https://images.pexels.com/photos/7051053/pexels-photo-7051053.png?auto=compress&cs=tinysrgb&dpr=1&fit=crop&h=200&w=280"
      },
      "alt": "Green Trees on Mountain"
    },
    {
      "id": 10775786,
      "width": 3000,
      "height": 4000,
      "url": "https://www.pexels.com/photo/shadow-of-couple-holding-hands-and-standing-on-a-snow-10775786/",
      "photographer": "Евгений Шухман",
      "photographer_url": "https://www.pexels.com/@zh-ru",
      "photographer_id": 70198808,
      "avg_color": "#CAD3DC",
      "src": {
        "original": "https://images.pexels.com/photos/10775786/pexels-photo-10775786.jpeg",
        "large2x": "https://images.pexels.com/photos/10775786/pexels-photo-10775786.jpeg?auto=compress&cs=tinysrgb&dpr=2&h=650&w=940",
        "large": "https://images.pexels.com/photos/10775786/pexels-photo-10775786.jpeg?auto=compress&cs=tinysrgb&h=650&w=940",
        "medium": "https://images.pexels.com/photos/10775786/pexels-photo-10775786.jpeg?auto=compress&cs=tinysrgb&h=350",
        "small": "https://images.pexels.com/photos/10775786/pexels-photo-10775786.jpeg?auto=compress&cs=tinysrgb&h=130",
        "portrait": "https://images.pexels.com/photos/10775786/pexels-photo-10775786.jpeg?auto=compress&cs=tinysrgb&fit=crop&h=1200&w=800",
        "landscape": "https://images.pexels.com/photos/10775786/pexels-photo-10775786.jpeg?auto=compress&cs=tinysrgb&fit=crop&h=627&w=1200",
        "tiny": "https://images.pexels.com/photos/10775786/pexels-photo-10775786.jpeg?auto=compress&cs=tinysrgb&dpr=1&fit=crop&h=200&w=280"
      },
      "alt": "Shadow of Couple Holding Hands and Standing on a Snow "
    },
    {
      "id": 10786892,
      "width": 3610,
      "height": 5415,
      "url": "https://www.pexels.com/photo/brown-concrete-building-near-sea-under-cloudy-sky-10786892/",
      "photographer": "Dylan Leagh",
      "photographer_url": "https://www.pexels.com/@dylan-leagh-86004871",
      "photographer_id": 86004871,
      "avg_color": "#716966",
      "src": {
        "original": "https://images.pexels.com/photos/10786892/pexels-photo-10786892.jpeg",
        "large2x": "https://images.pexels.com/photos/10786892/pexels-photo-10786892.jpeg?auto=compress&cs=tinysrgb&dpr=2&h=650&w=940",
        "large": "https://images.pexels.com/photos/10786892/pexels-photo-10786892.jpeg?auto=compress&cs=tinysrgb&h=650&w=940",
        "medium": "https://images.pexels.com/photos/10786892/pexels-photo-10786892.jpeg?auto=compress&cs=tinysrgb&h=350",
        "small": "https://images.pexels.com/photos/10786892/pexels-photo-10786892.jpeg?auto=compress&cs=tinysrgb&h=130",
        "portrait": "https://images.pexels.com/photos/10786892/pexels-photo-10786892.jpeg?auto=compress&cs=tinysrgb&fit=crop&h=1200&w=800",
        "landscape": "https://images.pexels.com/photos/10786892/pexels-photo-10786892.jpeg?auto=compress&cs=tinysrgb&fit=crop&h=627&w=1200",
        "tiny": "https://images.pexels.com/photos/10786892/pexels-photo-10786892.jpeg?auto=compress&cs=tinysrgb&dpr=1&fit=crop&h=200&w=280"
      },
      "alt": "Brown Concrete Building Near Sea Under Cloudy Sky"
    },
    {
      "id": 10805360,
      "width": 2268,
      "height": 4032,
      "url": "https://www.pexels.com/photo/white-floor-tiles-in-close-up-photography-10805360/",
      "photographer": "kira schwarz",
      "photographer_url": "https://www.pexels.com/@kira-schwarz",
      "photographer_id": 616468,
      "avg_color": "#C0AE98",
      "src": {
        "original": "https://images.pexels.com/photos/10805360/pexels-photo-10805360.jpeg",
        "large2x": "https://images.pexels.com/photos/10805360/pexels-photo-10805360.jpeg?auto=compress&cs=tinysrgb&dpr=2&h=650&w=940",
        "large": "https://images.pexels.com/photos/10805360/pexels-photo-10805360.jpeg?auto=compress&cs=tinysrgb&h=650&w=940",
        "medium": "https://images.pexels.com/photos/10805360/pexels-photo-10805360.jpeg?auto=compress&cs=tinysrgb&h=350",
        "small": "https://images.pexels.com/photos/10805360/pexels-photo-10805360.jpeg?auto=compress&cs=tinysrgb&h=130",
        "portrait": "https://images.pexels.com/photos/10805360/pexels-photo-10805360.jpeg?auto=compress&cs=tinysrgb&fit=crop&h=1200&w=800",
        "landscape": "https://images.pexels.com/photos/10805360/pexels-photo-10805360.jpeg?auto=compress&cs=tinysrgb&fit=crop&h=627&w=1200",
        "tiny": "https://images.pexels.com/photos/10805360/pexels-photo-10805360.jpeg?auto=compress&cs=tinysrgb&dpr=1&fit=crop&h=200&w=280"
      },
      "alt": "White Floor Tiles in Close Up Photography"
    },
    {
      "id": 10805361,
      "width": 2268,
      "height": 3024,
      "url": "https://www.pexels.com/photo/grayscale-photo-of-brick-building-10805361/",
      "photographer": "kira schwarz",
      "photographer_url": "https://www.pexels.com/@kira-schwarz",
      "photographer_id": 616468,
      "avg_color": "#666666",
      "src": {
        "original": "https://images.pexels.com/photos/10805361/pexels-photo-10805361.jpeg",
        "large2x": "https://images.pexels.com/photos/10805361/pexels-photo-10805361.jpeg?auto=compress&cs=tinysrgb&dpr=2&h=650&w=940",
        "large": "https://images.pexels.com/photos/10805361/pexels-photo-10805361.jpeg?auto=compress&cs=tinysrgb&h=650&w=940",
        "medium": "https://images.pexels.com/photos/10805361/pexels-photo-10805361.jpeg?auto=compress&cs=tinysrgb&h=350",
        "small": "https://images.pexels.com/photos/10805361/pexels-photo-10805361.jpeg?auto=compress&cs=tinysrgb&h=130",
        "portrait": "https://images.pexels.com/photos/10805361/pexels-photo-10805361.jpeg?auto=compress&cs=tinysrgb&fit=crop&h=1200&w=800",
        "landscape": "https://images.pexels.com/photos/10805361/pexels-photo-10805361.jpeg?auto=compress&cs=tinysrgb&fit=crop&h=627&w=1200",
        "tiny": "https://images.pexels.com/photos/10805361/pexels-photo-10805361.jpeg?auto=compress&cs=tinysrgb&dpr=1&fit=crop&h=200&w=280"
      },
      "alt": "Grayscale Photo of Brick Building"
    },
    {
      "id": 10805373,
      "width": 2268,
      "height": 3024,
      "url": "https://www.pexels.com/photo/grayscale-photo-of-brick-wall-10805373/",
      "photographer": "kira schwarz",
      "photographer_url": "https://www.pexels.com/@kira-schwarz",
      "photographer_id": 616468,
      "avg_color": "#4E4E4E",
      "src": {
        "original": "https://images.pexels.com/photos/10805373/pexels-photo-10805373.jpeg",
        "large2x": "https://images.pexels.com/photos/10805373/pexels-photo-10805373.jpeg?auto=compress&cs=tinysrgb&dpr=2&h=650&w=940",
        "large": "https://images.pexels.com/photos/10805373/pexels-photo-10805373.jpeg?auto=compress&cs=tinysrgb&h=650&w=940",
        "medium": "https://images.pexels.com/photos/10805373/pexels-photo-10805373.jpeg?auto=compress&cs=tinysrgb&h=350",
        "small": "https://images.pexels.com/photos/10805373/pexels-photo-10805373.jpeg?auto=compress&cs=tinysrgb&h=130",
        "portrait": "https://images.pexels.com/photos/10805373/pexels-photo-10805373.jpeg?auto=compress&cs=tinysrgb&fit=crop&h=1200&w=800",
        "landscape": "https://images.pexels.com/photos/10805373/pexels-photo-10805373.jpeg?auto=compress&cs=tinysrgb&fit=crop&h=627&w=1200",
        "tiny": "https://images.pexels.com/photos/10805373/pexels-photo-10805373.jpeg?auto=compress&cs=tinysrgb&dpr=1&fit=crop&h=200&w=280"
      },
      "alt": "Grayscale Photo of Brick Wall"
    },
    {
      "id": 10805378,
      "width": 3024,
      "height": 4032,
      "url": "https://www.pexels.com/photo/city-road-people-street-10805378/",
      "photographer": "kira schwarz",
      "photographer_url": "https://www.pexels.com/@kira-schwarz",
      "photographer_id": 616468,
      "avg_color": "#6A6B6F",
      "src": {
        "original": "https://images.pexels.com/photos/10805378/pexels-photo-10805378.jpeg",
        "large2x": "https://images.pexels.com/photos/10805378/pexels-photo-10805378.jpeg?auto=compress&cs=tinysrgb&dpr=2&h=650&w=940",
        "large": "https://images.pexels.com/photos/10805378/pexels-photo-10805378.jpeg?auto=compress&cs=tinysrgb&h=650&w=940",
        "medium": "https://images.pexels.com/photos/10805378/pexels-photo-10805378.jpeg?auto=compress&cs=tinysrgb&h=350",
        "small": "https://images.pexels.com/photos/10805378/pexels-photo-10805378.jpeg?auto=compress&cs=tinysrgb&h=130",
        "portrait": "https://images.pexels.com/photos/10805378/pexels-photo-10805378.jpeg?auto=compress&cs=tinysrgb&fit=crop&h=1200&w=800",
        "landscape": "https://images.pexels.com/photos/10805378/pexels-photo-10805378.jpeg?auto=compress&cs=tinysrgb&fit=crop&h=627&w=1200",
        "tiny": "https://images.pexels.com/photos/10805378/pexels-photo-10805378.jpeg?auto=compress&cs=tinysrgb&dpr=1&fit=crop&h=200&w=280"
      },
      "alt": "Free stock photo of accident, architecture, building"
    },
    {
      "id": 10158736,
      "width": 2048,
      "height": 2048,
      "url": "https://www.pexels.com/photo/fashion-man-people-woman-10158736/",
      "photographer": "Daria Kruchkova",
      "photographer_url": "https://www.pexels.com/@daria-kruchkova-124357369",
      "photographer_id": 124357369,
      "avg_color": "#E5DDD2",
      "src": {
        "original": "https://images.pexels.com/photos/10158736/pexels-photo-10158736.jpeg",
        "large2x": "https://images.pexels.com/photos/10158736/pexels-photo-10158736.jpeg?auto=compress&cs=tinysrgb&dpr=2&h=650&w=940",
        "large": "https://images.pexels.com/photos/10158736/pexels-photo-10158736.jpeg?auto=compress&cs=tinysrgb&h=650&w=940",
        "medium": "https://images.pexels.com/photos/10158736/pexels-photo-10158736.jpeg?auto=compress&cs=tinysrgb&h=350",
        "small": "https://images.pexels.com/photos/10158736/pexels-photo-10158736.jpeg?auto=compress&cs=tinysrgb&h=130",
        "portrait": "https://images.pexels.com/photos/10158736/pexels-photo-10158736.jpeg?auto=compress&cs=tinysrgb&fit=crop&h=1200&w=800",
        "landscape": "https://images.pexels.com/photos/10158736/pexels-photo-10158736.jpeg?auto=compress&cs=tinysrgb&fit=crop&h=627&w=1200",
        "tiny": "https://images.pexels.com/photos/10158736/pexels-photo-10158736.jpeg?auto=compress&cs=tinysrgb&dpr=1&fit=crop&h=200&w=280"
      },
      "alt": "Woman in Red Long Sleeve Dress"
    },
    {
      "id": 10774201,
      "width": 3870,
      "height": 3870,
      "url": "https://www.pexels.com/photo/purple-and-white-flower-field-10774201/",
      "photographer": "Annie Spratt",
      "photographer_url": "https://www.pexels.com/@annie-spratt-3895685",
      "photographer_id": 3895685,
      "avg_color": "#97B1AE",
      "src": {
        "original": "https://images.pexels.com/photos/10774201/pexels-photo-10774201.jpeg",
        "large2x": "https://images.pexels.com/photos/10774201/pexels-photo-10774201.jpeg?auto=compress&cs=tinysrgb&dpr=2&h=650&w=940",
        "large": "https://images.pexels.com/photos/10774201/pexels-photo-10774201.jpeg?auto=compress&cs=tinysrgb&h=650&w=940",
        "medium": "https://images.pexels.com/photos/10774201/pexels-photo-10774201.jpeg?auto=compress&cs=tinysrgb&h=350",
        "small": "https://images.pexels.com/photos/10774201/pexels-photo-10774201.jpeg?auto=compress&cs=tinysrgb&h=130",
        "portrait": "https://images.pexels.com/photos/10774201/pexels-photo-10774201.jpeg?auto=compress&cs=tinysrgb&fit=crop&h=1200&w=800",
        "landscape": "https://images.pexels.com/photos/10774201/pexels-photo-10774201.jpeg?auto=compress&cs=tinysrgb&fit=crop&h=627&w=1200",
        "tiny": "https://images.pexels.com/photos/10774201/pexels-photo-10774201.jpeg?auto=compress&cs=tinysrgb&dpr=1&fit=crop&h=200&w=280"
      },
      "alt": "Purple and White Flower Field"
    },
    {
      "id": 10778455,
      "width": 3194,
      "height": 5676,
      "url": "https://www.pexels.com/photo/food-plate-cup-sugar-10778455/",
      "photographer": "Anna Belousova",
      "photographer_url": "https://www.pexels.com/@anna-belousova-130658517",
      "photographer_id": 130658517,
      "avg_color": "#84878C",
      "src": {
        "original": "https://images.pexels.com/photos/10778455/pexels-photo-10778455.jpeg",
        "large2x": "https://images.pexels.com/photos/10778455/pexels-photo-10778455.jpeg?auto=compress&cs=tinysrgb&dpr=2&h=650&w=940",
        "large": "https://images.pexels.com/photos/10778455/pexels-photo-10778455.jpeg?auto=compress&cs=tinysrgb&h=650&w=940",
        "medium": "https://images.pexels.com/photos/10778455/pexels-photo-10778455.jpeg?auto=compress&cs=tinysrgb&h=350",
        "small": "https://images.pexels.com/photos/10778455/pexels-photo-10778455.jpeg?auto=compress&cs=tinysrgb&h=130",
        "portrait": "https://images.pexels.com/photos/10778455/pexels-photo-10778455.jpeg?auto=compress&cs=tinysrgb&fit=crop&h=1200&w=800",
        "landscape": "https://images.pexels.com/photos/10778455/pexels-photo-10778455.jpeg?auto=compress&cs=tinysrgb&fit=crop&h=627&w=1200",
        "tiny": "https://images.pexels.com/photos/10778455/pexels-photo-10778455.jpeg?auto=compress&cs=tinysrgb&dpr=1&fit=crop&h=200&w=280"
      },
      "alt": "Free stock photo of almond, almond milk, bakery"
    },
    {
      "id": 10785664,
      "width": 2250,
      "height": 3375,
      "url": "https://www.pexels.com/photo/sea-landscape-beach-sand-10785664/",
      "photographer": "Chris Margaritis",
      "photographer_url": "https://www.pexels.com/@chrismargaritis",
      "photographer_id": 108845886,
      "avg_color": "#A3B7B5",
      "src": {
        "original": "https://images.pexels.com/photos/10785664/pexels-photo-10785664.jpeg",
        "large2x": "https://images.pexels.com/photos/10785664/pexels-photo-10785664.jpeg?auto=compress&cs=tinysrgb&dpr=2&h=650&w=940",
        "large": "https://images.pexels.com/photos/10785664/pexels-photo-10785664.jpeg?auto=compress&cs=tinysrgb&h=650&w=940",
        "medium": "https://images.pexels.com/photos/10785664/pexels-photo-10785664.jpeg?auto=compress&cs=tinysrgb&h=350",
        "small": "https://images.pexels.com/photos/10785664/pexels-photo-10785664.jpeg?auto=compress&cs=tinysrgb&h=130",
        "portrait": "https://images.pexels.com/photos/10785664/pexels-photo-10785664.jpeg?auto=compress&cs=tinysrgb&fit=crop&h=1200&w=800",
        "landscape": "https://images.pexels.com/photos/10785664/pexels-photo-10785664.jpeg?auto=compress&cs=tinysrgb&fit=crop&h=627&w=1200",
        "tiny": "https://images.pexels.com/photos/10785664/pexels-photo-10785664.jpeg?auto=compress&cs=tinysrgb&dpr=1&fit=crop&h=200&w=280"
      },
      "alt": "Free stock photo of beach, beautiful, beauty"
    },
    {
      "id": 10701030,
      "width": 3526,
      "height": 4923,
      "url": "https://www.pexels.com/photo/tourists-walking-around-old-town-10701030/",
      "photographer": "Beyza Kaplan",
      "photographer_url": "https://www.pexels.com/@kkaplanart",
      "photographer_id": 42038564,
      "avg_color": "#3A3A3A",
      "src": {
        "original": "https://images.pexels.com/photos/10701030/pexels-photo-10701030.jpeg",
        "large2x": "https://images.pexels.com/photos/10701030/pexels-photo-10701030.jpeg?auto=compress&cs=tinysrgb&dpr=2&h=650&w=940",
        "large": "https://images.pexels.com/photos/10701030/pexels-photo-10701030.jpeg?auto=compress&cs=tinysrgb&h=650&w=940",
        "medium": "https://images.pexels.com/photos/10701030/pexels-photo-10701030.jpeg?auto=compress&cs=tinysrgb&h=350",
        "small": "https://images.pexels.com/photos/10701030/pexels-photo-10701030.jpeg?auto=compress&cs=tinysrgb&h=130",
        "portrait": "https://images.pexels.com/photos/10701030/pexels-photo-10701030.jpeg?auto=compress&cs=tinysrgb&fit=crop&h=1200&w=800",
        "landscape": "https://images.pexels.com/photos/10701030/pexels-photo-10701030.jpeg?auto=compress&cs=tinysrgb&fit=crop&h=627&w=1200",
        "tiny": "https://images.pexels.com/photos/10701030/pexels-photo-10701030.jpeg?auto=compress&cs=tinysrgb&dpr=1&fit=crop&h=200&w=280"
      },
      "alt": "Tourists Walking Around Old Town"
    },
    {
      "id": 10701375,
      "width": 2090,
      "height": 3000,
      "url": "https://www.pexels.com/photo/potted-succulents-and-cacti-10701375/",
      "photographer": "Annie Spratt",
      "photographer_url": "https://www.pexels.com/@annie-spratt-3895685",
      "photographer_id": 3895685,
      "avg_color": "#D4D2C5",
      "src": {
        "original": "https://images.pexels.com/photos/10701375/pexels-photo-10701375.jpeg",
        "large2x": "https://images.pexels.com/photos/10701375/pexels-photo-10701375.jpeg?auto=compress&cs=tinysrgb&dpr=2&h=650&w=940",
        "large": "https://images.pexels.com/photos/10701375/pexels-photo-10701375.jpeg?auto=compress&cs=tinysrgb&h=650&w=940",
        "medium": "https://images.pexels.com/photos/10701375/pexels-photo-10701375.jpeg?auto=compress&cs=tinysrgb&h=350",
        "small": "https://images.pexels.com/photos/10701375/pexels-photo-10701375.jpeg?auto=compress&cs=tinysrgb&h=130",
        "portrait": "https://images.pexels.com/photos/10701375/pexels-photo-10701375.jpeg?auto=compress&cs=tinysrgb&fit=crop&h=1200&w=800",
        "landscape": "https://images.pexels.com/photos/10701375/pexels-photo-10701375.jpeg?auto=compress&cs=tinysrgb&fit=crop&h=627&w=1200",
        "tiny": "https://images.pexels.com/photos/10701375/pexels-photo-10701375.jpeg?auto=compress&cs=tinysrgb&dpr=1&fit=crop&h=200&w=280"
      },
      "alt": "Potted Succulents and Cacti"
    },
    {
      "id": 10688597,
      "width": 3376,
      "height": 6000,
      "url": "https://www.pexels.com/photo/shortbread-biscuits-with-peanuts-10688597/",
      "photographer": "Anna Belousova",
      "photographer_url": "https://www.pexels.com/@anna-belousova-130658517",
      "photographer_id": 130658517,
      "avg_color": "#887163",
      "src": {
        "original": "https://images.pexels.com/photos/10688597/pexels-photo-10688597.jpeg",
        "large2x": "https://images.pexels.com/photos/10688597/pexels-photo-10688597.jpeg?auto=compress&cs=tinysrgb&dpr=2&h=650&w=940",
        "large": "https://images.pexels.com/photos/10688597/pexels-photo-10688597.jpeg?auto=compress&cs=tinysrgb&h=650&w=940",
        "medium": "https://images.pexels.com/photos/10688597/pexels-photo-10688597.jpeg?auto=compress&cs=tinysrgb&h=350",
        "small": "https://images.pexels.com/photos/10688597/pexels-photo-10688597.jpeg?auto=compress&cs=tinysrgb&h=130",
        "portrait": "https://images.pexels.com/photos/10688597/pexels-photo-10688597.jpeg?auto=compress&cs=tinysrgb&fit=crop&h=1200&w=800",
        "landscape": "https://images.pexels.com/photos/10688597/pexels-photo-10688597.jpeg?auto=compress&cs=tinysrgb&fit=crop&h=627&w=1200",
        "tiny": "https://images.pexels.com/photos/10688597/pexels-photo-10688597.jpeg?auto=compress&cs=tinysrgb&dpr=1&fit=crop&h=200&w=280"
      },
      "alt": "Shortbread Biscuits with Peanuts"
    },
    {
      "id": 10757932,
      "width": 3856,
      "height": 5399,
      "url": "https://www.pexels.com/photo/grayscale-photo-of-car-on-road-10757932/",
      "photographer": "Nguyen duc",
      "photographer_url": "https://www.pexels.com/@nguyen-duc-158523409",
      "photographer_id": 158523409,
      "avg_color": "#3D3D3D",
      "src": {
        "original": "https://images.pexels.com/photos/10757932/pexels-photo-10757932.png",
        "large2x": "https://images.pexels.com/photos/10757932/pexels-photo-10757932.png?auto=compress&cs=tinysrgb&dpr=2&h=650&w=940",
        "large": "https://images.pexels.com/photos/10757932/pexels-photo-10757932.png?auto=compress&cs=tinysrgb&h=650&w=940",
        "medium": "https://images.pexels.com/photos/10757932/pexels-photo-10757932.png?auto=compress&cs=tinysrgb&h=350",
        "small": "https://images.pexels.com/photos/10757932/pexels-photo-10757932.png?auto=compress&cs=tinysrgb&h=130",
        "portrait": "https://images.pexels.com/photos/10757932/pexels-photo-10757932.png?auto=compress&cs=tinysrgb&fit=crop&h=1200&w=800",
        "landscape": "https://images.pexels.com/photos/10757932/pexels-photo-10757932.png?auto=compress&cs=tinysrgb&fit=crop&h=627&w=1200",
        "tiny": "https://images.pexels.com/photos/10757932/pexels-photo-10757932.png?auto=compress&cs=tinysrgb&dpr=1&fit=crop&h=200&w=280"
      },
      "alt": "Grayscale Photo of Car on Road"
    }
  ],
  "total_results": 8000,
  "next_page": "https://api.pexels.com/v1/curated/?page=2&per_page=16"
}